{
  "total": 1894,
  "total_pages": 190,
  "results": [
    {
      "id": "pChE-f_gqVc",
      "created_at": "2015-03-13T19:01:04-04:00",
      "updated_at": "2017-11-01T15:36:32-04:00",
      "width": 3008,
      "height": 2000,
      "color": "#3F4140",
      "description": null,
      "categories": [],
      "user": {
        "id": "lnGVOX2U20E",
        "updated_at": "2018-03-26T03:30:53-04:00",
        "username": "wlangenberg",
        "name": "Will Langenberg",
        "first_name": "Will",
        "last_name": "Langenberg",
        "twitter_username": null,
        "portfolio_url": "http://www.willlangenberg.com",
        "bio": null,
        "location": "NYC",
        "links": {
          "self": "https://api.unsplash.com/users/wlangenberg",
          "html": "https://unsplash.com/@wlangenberg",
          "photos": "https://api.unsplash.com/users/wlangenberg/photos",
          "likes": "https://api.unsplash.com/users/wlangenberg/likes",
          "portfolio": "https://api.unsplash.com/users/wlangenberg/portfolio",
          "following": "https://api.unsplash.com/users/wlangenberg/following",
          "followers": "https://api.unsplash.com/users/wlangenberg/followers"
        },
        "profile_image": {
          "small":
            "https://images.unsplash.com/placeholder-avatars/extra-large.jpg?ixlib=rb-0.3.5&q=80&fm=jpg&crop=faces&cs=tinysrgb&fit=crop&h=32&w=32&s=0ad68f44c4725d5a3fda019bab9d3edc",
          "medium":
            "https://images.unsplash.com/placeholder-avatars/extra-large.jpg?ixlib=rb-0.3.5&q=80&fm=jpg&crop=faces&cs=tinysrgb&fit=crop&h=64&w=64&s=356bd4b76a3d4eb97d63f45b818dd358",
          "large":
            "https://images.unsplash.com/placeholder-avatars/extra-large.jpg?ixlib=rb-0.3.5&q=80&fm=jpg&crop=faces&cs=tinysrgb&fit=crop&h=128&w=128&s=ee8bbf5fb8d6e43aaaa238feae2fe90d"
        },
        "total_collections": 0,
        "instagram_username": "will.langenberg",
        "total_likes": 0,
        "total_photos": 36
      },
      "urls": {
        "raw":
          "https://images.unsplash.com/photo-1426287658398-5a912ce1ed0a?ixlib=rb-0.3.5&ixid=eyJhcHBfaWQiOjIzNzc5fQ&s=0d8bb3401fe80407f0c074567ec73d4c",
        "full":
          "https://images.unsplash.com/photo-1426287658398-5a912ce1ed0a?ixlib=rb-0.3.5&q=85&fm=jpg&crop=entropy&cs=srgb&ixid=eyJhcHBfaWQiOjIzNzc5fQ&s=f8e0a485c6a18b1c551495db357a45e2",
        "regular":
          "https://images.unsplash.com/photo-1426287658398-5a912ce1ed0a?ixlib=rb-0.3.5&q=80&fm=jpg&crop=entropy&cs=tinysrgb&w=1080&fit=max&ixid=eyJhcHBfaWQiOjIzNzc5fQ&s=a66c2030a6a8fd9e5b32ffedad6318ab",
        "small":
          "https://images.unsplash.com/photo-1426287658398-5a912ce1ed0a?ixlib=rb-0.3.5&q=80&fm=jpg&crop=entropy&cs=tinysrgb&w=400&fit=max&ixid=eyJhcHBfaWQiOjIzNzc5fQ&s=b248044fa555e18710255536bb6fd416",
        "thumb":
          "https://images.unsplash.com/photo-1426287658398-5a912ce1ed0a?ixlib=rb-0.3.5&q=80&fm=jpg&crop=entropy&cs=tinysrgb&w=200&fit=max&ixid=eyJhcHBfaWQiOjIzNzc5fQ&s=1ae1d1fc433c80d059db1393966375ef"
      },
      "links": {
        "self": "https://api.unsplash.com/photos/pChE-f_gqVc",
        "html": "https://unsplash.com/photos/pChE-f_gqVc",
        "download": "https://unsplash.com/photos/pChE-f_gqVc/download",
        "download_location":
          "https://api.unsplash.com/photos/pChE-f_gqVc/download"
      },
      "liked_by_user": false,
      "sponsored": false,
      "likes": 186,
      "current_user_collections": [],
      "photo_tags": [{ "title": "nature" }, { "title": "listening" }]
    },
    {
      "id": "wT2RNG9_Jhw",
      "created_at": "2015-10-30T15:05:28-04:00",
      "updated_at": "2017-10-29T00:58:08-04:00",
      "width": 5184,
      "height": 3456,
      "color": "#A18067",
      "description": null,
      "categories": [],
      "user": {
        "id": "Yk2mOuFrp8Q",
        "updated_at": "2018-03-23T08:30:13-04:00",
        "username": "lbrto",
        "name": "Gabrielle Costa",
        "first_name": "Gabrielle",
        "last_name": "Costa",
        "twitter_username": null,
        "portfolio_url": null,
        "bio": null,
        "location": null,
        "links": {
          "self": "https://api.unsplash.com/users/lbrto",
          "html": "https://unsplash.com/@lbrto",
          "photos": "https://api.unsplash.com/users/lbrto/photos",
          "likes": "https://api.unsplash.com/users/lbrto/likes",
          "portfolio": "https://api.unsplash.com/users/lbrto/portfolio",
          "following": "https://api.unsplash.com/users/lbrto/following",
          "followers": "https://api.unsplash.com/users/lbrto/followers"
        },
        "profile_image": {
          "small":
            "https://images.unsplash.com/profile-1446232248113-03b086cf0c70?ixlib=rb-0.3.5&q=80&fm=jpg&crop=faces&cs=tinysrgb&fit=crop&h=32&w=32&s=0ecaf8d2282683def2ebe552c8ad3bec",
          "medium":
            "https://images.unsplash.com/profile-1446232248113-03b086cf0c70?ixlib=rb-0.3.5&q=80&fm=jpg&crop=faces&cs=tinysrgb&fit=crop&h=64&w=64&s=de3eb08c4f33e982a61b25d63f3a5d3e",
          "large":
            "https://images.unsplash.com/profile-1446232248113-03b086cf0c70?ixlib=rb-0.3.5&q=80&fm=jpg&crop=faces&cs=tinysrgb&fit=crop&h=128&w=128&s=64dd6dae726b2b4f5da7f119e401ab64"
        },
        "total_collections": 0,
        "instagram_username": null,
        "total_likes": 10,
        "total_photos": 7
      },
      "urls": {
        "raw":
          "https://images.unsplash.com/photo-1446231855385-1d4b0f025248?ixlib=rb-0.3.5&ixid=eyJhcHBfaWQiOjIzNzc5fQ&s=46b978735f137eea309827053a375c8b",
        "full":
          "https://images.unsplash.com/photo-1446231855385-1d4b0f025248?ixlib=rb-0.3.5&q=85&fm=jpg&crop=entropy&cs=srgb&ixid=eyJhcHBfaWQiOjIzNzc5fQ&s=6fe2c7dfdd616a5a33f8066c764ed42b",
        "regular":
          "https://images.unsplash.com/photo-1446231855385-1d4b0f025248?ixlib=rb-0.3.5&q=80&fm=jpg&crop=entropy&cs=tinysrgb&w=1080&fit=max&ixid=eyJhcHBfaWQiOjIzNzc5fQ&s=8668d351a829e9e8a19ff66f925d7459",
        "small":
          "https://images.unsplash.com/photo-1446231855385-1d4b0f025248?ixlib=rb-0.3.5&q=80&fm=jpg&crop=entropy&cs=tinysrgb&w=400&fit=max&ixid=eyJhcHBfaWQiOjIzNzc5fQ&s=6b24d49cd22e536f8a4cac319a53f1fa",
        "thumb":
          "https://images.unsplash.com/photo-1446231855385-1d4b0f025248?ixlib=rb-0.3.5&q=80&fm=jpg&crop=entropy&cs=tinysrgb&w=200&fit=max&ixid=eyJhcHBfaWQiOjIzNzc5fQ&s=0746ca86013b5620e7e53220ffaa8a0a"
      },
      "links": {
        "self": "https://api.unsplash.com/photos/wT2RNG9_Jhw",
        "html": "https://unsplash.com/photos/wT2RNG9_Jhw",
        "download": "https://unsplash.com/photos/wT2RNG9_Jhw/download",
        "download_location":
          "https://api.unsplash.com/photos/wT2RNG9_Jhw/download"
      },
      "liked_by_user": false,
      "sponsored": false,
      "likes": 147,
      "current_user_collections": [],
      "photo_tags": [
        { "title": "animal" },
        { "title": "canine" },
        { "title": "chow" },
        { "title": "pet" },
        { "title": "quiet" }
      ]
    },
    {
      "id": "KGy1GFeKBu4",
      "created_at": "2015-01-12T16:35:34-05:00",
      "updated_at": "2017-10-31T17:15:48-04:00",
      "width": 4928,
      "height": 2772,
      "color": "#312F2F",
      "description": "A husky dog wearing a harness in Necropolis",
      "categories": [],
      "user": {
        "id": "ek1nBTU9JME",
        "updated_at": "2018-04-01T02:02:50-04:00",
        "username": "xavortm",
        "name": "Alexander Dimitrov",
        "first_name": "Alexander",
        "last_name": "Dimitrov",
        "twitter_username": "xavortm",
        "portfolio_url": "http://www.xavortm.com",
        "bio":
          "Designer and front-end developer. Photography is a hobby that I can't practice enough :(",
        "location": "Bulgaria, Elin Pelin",
        "links": {
          "self": "https://api.unsplash.com/users/xavortm",
          "html": "https://unsplash.com/@xavortm",
          "photos": "https://api.unsplash.com/users/xavortm/photos",
          "likes": "https://api.unsplash.com/users/xavortm/likes",
          "portfolio": "https://api.unsplash.com/users/xavortm/portfolio",
          "following": "https://api.unsplash.com/users/xavortm/following",
          "followers": "https://api.unsplash.com/users/xavortm/followers"
        },
        "profile_image": {
          "small":
            "https://images.unsplash.com/profile-1449133222569-3cd56fda165f?ixlib=rb-0.3.5&q=80&fm=jpg&crop=faces&cs=tinysrgb&fit=crop&h=32&w=32&s=36195753290bf1d7c18c06d608f855b7",
          "medium":
            "https://images.unsplash.com/profile-1449133222569-3cd56fda165f?ixlib=rb-0.3.5&q=80&fm=jpg&crop=faces&cs=tinysrgb&fit=crop&h=64&w=64&s=7cf0b1bca1c1291f92d0e4cb17955503",
          "large":
            "https://images.unsplash.com/profile-1449133222569-3cd56fda165f?ixlib=rb-0.3.5&q=80&fm=jpg&crop=faces&cs=tinysrgb&fit=crop&h=128&w=128&s=b5f36ff7b48d37aad5375174c6e1c30c"
        },
        "total_collections": 3,
        "instagram_username": "xavortm",
        "total_likes": 4,
        "total_photos": 4
      },
      "urls": {
        "raw":
          "https://images.unsplash.com/photo-1421098518790-5a14be02b243?ixlib=rb-0.3.5&ixid=eyJhcHBfaWQiOjIzNzc5fQ&s=30623a6fe2afe872aa22815363c1d41d",
        "full":
          "https://images.unsplash.com/photo-1421098518790-5a14be02b243?ixlib=rb-0.3.5&q=85&fm=jpg&crop=entropy&cs=srgb&ixid=eyJhcHBfaWQiOjIzNzc5fQ&s=beac18ec7dc8885a61d14c5f18398d8e",
        "regular":
          "https://images.unsplash.com/photo-1421098518790-5a14be02b243?ixlib=rb-0.3.5&q=80&fm=jpg&crop=entropy&cs=tinysrgb&w=1080&fit=max&ixid=eyJhcHBfaWQiOjIzNzc5fQ&s=6100697a8652a85cc22f992f574b3cf1",
        "small":
          "https://images.unsplash.com/photo-1421098518790-5a14be02b243?ixlib=rb-0.3.5&q=80&fm=jpg&crop=entropy&cs=tinysrgb&w=400&fit=max&ixid=eyJhcHBfaWQiOjIzNzc5fQ&s=003859b062521d060897b58e99803ee3",
        "thumb":
          "https://images.unsplash.com/photo-1421098518790-5a14be02b243?ixlib=rb-0.3.5&q=80&fm=jpg&crop=entropy&cs=tinysrgb&w=200&fit=max&ixid=eyJhcHBfaWQiOjIzNzc5fQ&s=3812ae1569690078497e7644c7f4db09"
      },
      "links": {
        "self": "https://api.unsplash.com/photos/KGy1GFeKBu4",
        "html": "https://unsplash.com/photos/KGy1GFeKBu4",
        "download": "https://unsplash.com/photos/KGy1GFeKBu4/download",
        "download_location":
          "https://api.unsplash.com/photos/KGy1GFeKBu4/download"
      },
      "liked_by_user": false,
      "sponsored": false,
      "likes": 401,
      "current_user_collections": [],
      "photo_tags": [
        { "title": "animal" },
        { "title": "husky" },
        { "title": "canine" },
        { "title": "harness" },
        { "title": "royal" }
      ]
    },
    {
      "id": "AbNO2iejoXA",
      "created_at": "2017-09-07T19:18:53-04:00",
      "updated_at": "2017-11-01T14:15:10-04:00",
      "width": 3226,
      "height": 4839,
      "color": "#1E1D1F",
      "description": null,
      "categories": [],
      "user": {
        "id": "OOlP2c2_w_4",
        "updated_at": "2018-03-17T19:34:17-04:00",
        "username": "rwltn1",
        "name": "Ryan Walton",
        "first_name": "Ryan",
        "last_name": "Walton",
        "twitter_username": null,
        "portfolio_url": null,
        "bio": null,
        "location": null,
        "links": {
          "self": "https://api.unsplash.com/users/rwltn1",
          "html": "https://unsplash.com/@rwltn1",
          "photos": "https://api.unsplash.com/users/rwltn1/photos",
          "likes": "https://api.unsplash.com/users/rwltn1/likes",
          "portfolio": "https://api.unsplash.com/users/rwltn1/portfolio",
          "following": "https://api.unsplash.com/users/rwltn1/following",
          "followers": "https://api.unsplash.com/users/rwltn1/followers"
        },
        "profile_image": {
          "small":
            "https://images.unsplash.com/profile-1504826550317-3c502b97e088?ixlib=rb-0.3.5&q=80&fm=jpg&crop=faces&cs=tinysrgb&fit=crop&h=32&w=32&s=78866d795ce2cbf0be1c9d8026daa3f1",
          "medium":
            "https://images.unsplash.com/profile-1504826550317-3c502b97e088?ixlib=rb-0.3.5&q=80&fm=jpg&crop=faces&cs=tinysrgb&fit=crop&h=64&w=64&s=46b63e396d58f98ddbc0327943f94c46",
          "large":
            "https://images.unsplash.com/profile-1504826550317-3c502b97e088?ixlib=rb-0.3.5&q=80&fm=jpg&crop=faces&cs=tinysrgb&fit=crop&h=128&w=128&s=bf772a4312d788032ed1f1b5eb42d664"
        },
        "total_collections": 1,
        "instagram_username": null,
        "total_likes": 16,
        "total_photos": 5
      },
      "urls": {
        "raw":
          "https://images.unsplash.com/photo-1504826260979-242151ee45b7?ixlib=rb-0.3.5&ixid=eyJhcHBfaWQiOjIzNzc5fQ&s=28dbc2154d992b946989887a5d92df4c",
        "full":
          "https://images.unsplash.com/photo-1504826260979-242151ee45b7?ixlib=rb-0.3.5&q=85&fm=jpg&crop=entropy&cs=srgb&ixid=eyJhcHBfaWQiOjIzNzc5fQ&s=e7947a93a2d8a0acf57e930916632843",
        "regular":
          "https://images.unsplash.com/photo-1504826260979-242151ee45b7?ixlib=rb-0.3.5&q=80&fm=jpg&crop=entropy&cs=tinysrgb&w=1080&fit=max&ixid=eyJhcHBfaWQiOjIzNzc5fQ&s=b8cda285201cfa97dbf23dea37252b29",
        "small":
          "https://images.unsplash.com/photo-1504826260979-242151ee45b7?ixlib=rb-0.3.5&q=80&fm=jpg&crop=entropy&cs=tinysrgb&w=400&fit=max&ixid=eyJhcHBfaWQiOjIzNzc5fQ&s=0262c01baf365fcc9fc16f80d92db04a",
        "thumb":
          "https://images.unsplash.com/photo-1504826260979-242151ee45b7?ixlib=rb-0.3.5&q=80&fm=jpg&crop=entropy&cs=tinysrgb&w=200&fit=max&ixid=eyJhcHBfaWQiOjIzNzc5fQ&s=af29ac4dfa13ccfed4e719e0792891e5"
      },
      "links": {
        "self": "https://api.unsplash.com/photos/AbNO2iejoXA",
        "html": "https://unsplash.com/photos/AbNO2iejoXA",
        "download": "https://unsplash.com/photos/AbNO2iejoXA/download",
        "download_location":
          "https://api.unsplash.com/photos/AbNO2iejoXA/download"
      },
      "liked_by_user": false,
      "sponsored": false,
      "likes": 343,
      "current_user_collections": [],
      "photo_tags": [
        { "title": "puppy" },
        { "title": "canine" },
        { "title": "pet" },
        { "title": "sand" },
        { "title": "beach" }
      ]
    },
    {
      "id": "huInxp6rL1g",
      "created_at": "2015-10-01T21:44:41-04:00",
      "updated_at": "2017-10-31T16:56:21-04:00",
      "width": 4368,
      "height": 2912,
      "color": "#8A7B5E",
      "description":
        "A pug wearing a sweater with a hood sitting in grass near trees",
      "categories": [],
      "user": {
        "id": "6LVqhgq3v1Q",
        "updated_at": "2018-03-31T17:55:47-04:00",
        "username": "matthewhenry",
        "name": "Matthew Henry",
        "first_name": "Matthew",
        "last_name": "Henry",
        "twitter_username": "MattWiebe2",
        "portfolio_url": "https://instagram.com/matt_henry_photo/",
        "bio":
          "videographer (vimeo.com/mtthwhnry) & photographer for Shopify located in Toronto, Canada",
        "location": "Toronto, Ontario",
        "links": {
          "self": "https://api.unsplash.com/users/matthewhenry",
          "html": "https://unsplash.com/@matthewhenry",
          "photos": "https://api.unsplash.com/users/matthewhenry/photos",
          "likes": "https://api.unsplash.com/users/matthewhenry/likes",
          "portfolio": "https://api.unsplash.com/users/matthewhenry/portfolio",
          "following": "https://api.unsplash.com/users/matthewhenry/following",
          "followers": "https://api.unsplash.com/users/matthewhenry/followers"
        },
        "profile_image": {
          "small":
            "https://images.unsplash.com/profile-1442074255542-361bdf6cae55?ixlib=rb-0.3.5&q=80&fm=jpg&crop=faces&cs=tinysrgb&fit=crop&h=32&w=32&s=98530b29976443a8e4d697428cabf5d1",
          "medium":
            "https://images.unsplash.com/profile-1442074255542-361bdf6cae55?ixlib=rb-0.3.5&q=80&fm=jpg&crop=faces&cs=tinysrgb&fit=crop&h=64&w=64&s=a825beb606af42f137c77af51e2c8959",
          "large":
            "https://images.unsplash.com/profile-1442074255542-361bdf6cae55?ixlib=rb-0.3.5&q=80&fm=jpg&crop=faces&cs=tinysrgb&fit=crop&h=128&w=128&s=260257c855a0cd5740505dfea725a2d5"
        },
        "total_collections": 9,
        "instagram_username": "matt_henry_photo",
        "total_likes": 498,
        "total_photos": 68
      },
      "urls": {
        "raw":
          "https://images.unsplash.com/photo-1443750200537-00fd518bdc82?ixlib=rb-0.3.5&ixid=eyJhcHBfaWQiOjIzNzc5fQ&s=0c213ac9b3f0b0d28906f1055bee2a47",
        "full":
          "https://images.unsplash.com/photo-1443750200537-00fd518bdc82?ixlib=rb-0.3.5&q=85&fm=jpg&crop=entropy&cs=srgb&ixid=eyJhcHBfaWQiOjIzNzc5fQ&s=a448a25eb6809cfeeb20acb50c2f92d8",
        "regular":
          "https://images.unsplash.com/photo-1443750200537-00fd518bdc82?ixlib=rb-0.3.5&q=80&fm=jpg&crop=entropy&cs=tinysrgb&w=1080&fit=max&ixid=eyJhcHBfaWQiOjIzNzc5fQ&s=94fb9b35abf1bb0c98f7dcb892395623",
        "small":
          "https://images.unsplash.com/photo-1443750200537-00fd518bdc82?ixlib=rb-0.3.5&q=80&fm=jpg&crop=entropy&cs=tinysrgb&w=400&fit=max&ixid=eyJhcHBfaWQiOjIzNzc5fQ&s=c80f19e1d132093c4473d4c203b285e7",
        "thumb":
          "https://images.unsplash.com/photo-1443750200537-00fd518bdc82?ixlib=rb-0.3.5&q=80&fm=jpg&crop=entropy&cs=tinysrgb&w=200&fit=max&ixid=eyJhcHBfaWQiOjIzNzc5fQ&s=2bce39451a7a48d227d41f20e723078c"
      },
      "links": {
        "self": "https://api.unsplash.com/photos/huInxp6rL1g",
        "html": "https://unsplash.com/photos/huInxp6rL1g",
        "download": "https://unsplash.com/photos/huInxp6rL1g/download",
        "download_location":
          "https://api.unsplash.com/photos/huInxp6rL1g/download"
      },
      "liked_by_user": false,
      "sponsored": false,
      "likes": 186,
      "current_user_collections": [],
      "photo_tags": [
        { "title": "dog" },
        { "title": "tree" },
        { "title": "forest" },
        { "title": "sweater" },
        { "title": "sunset" }
      ]
    },
    {
      "id": "Aka2x2D4Ph0",
      "created_at": "2016-01-21T03:42:02-05:00",
      "updated_at": "2017-11-01T02:36:47-04:00",
      "width": 5616,
      "height": 3744,
      "color": "#ECD6CE",
      "description": null,
      "categories": [],
      "user": {
        "id": "BaHQmsmow9U",
        "updated_at": "2018-03-18T20:13:10-04:00",
        "username": "dearskye",
        "name": "Christal Yuen",
        "first_name": "Christal",
        "last_name": "Yuen",
        "twitter_username": null,
        "portfolio_url": "http://dearskye.com",
        "bio": null,
        "location": "San Francisco",
        "links": {
          "self": "https://api.unsplash.com/users/dearskye",
          "html": "https://unsplash.com/@dearskye",
          "photos": "https://api.unsplash.com/users/dearskye/photos",
          "likes": "https://api.unsplash.com/users/dearskye/likes",
          "portfolio": "https://api.unsplash.com/users/dearskye/portfolio",
          "following": "https://api.unsplash.com/users/dearskye/following",
          "followers": "https://api.unsplash.com/users/dearskye/followers"
        },
        "profile_image": {
          "small":
            "https://images.unsplash.com/profile-fb-1452562854-c9aed7384ecd.jpg?ixlib=rb-0.3.5&q=80&fm=jpg&crop=faces&cs=tinysrgb&fit=crop&h=32&w=32&s=3c82234932457c08acc86157a4024efd",
          "medium":
            "https://images.unsplash.com/profile-fb-1452562854-c9aed7384ecd.jpg?ixlib=rb-0.3.5&q=80&fm=jpg&crop=faces&cs=tinysrgb&fit=crop&h=64&w=64&s=f41ab1bced1fdf7ad8861ea815fb12be",
          "large":
            "https://images.unsplash.com/profile-fb-1452562854-c9aed7384ecd.jpg?ixlib=rb-0.3.5&q=80&fm=jpg&crop=faces&cs=tinysrgb&fit=crop&h=128&w=128&s=3e9e1ebf86e8635263ade7bfc74ede75"
        },
        "total_collections": 0,
        "instagram_username": "chasingfivetwo",
        "total_likes": 59,
        "total_photos": 16
      },
      "urls": {
        "raw":
          "https://images.unsplash.com/photo-1453365607868-7deed8cc7d26?ixlib=rb-0.3.5&ixid=eyJhcHBfaWQiOjIzNzc5fQ&s=77f918fd5f80a28743ce8fdaad02b722",
        "full":
          "https://images.unsplash.com/photo-1453365607868-7deed8cc7d26?ixlib=rb-0.3.5&q=85&fm=jpg&crop=entropy&cs=srgb&ixid=eyJhcHBfaWQiOjIzNzc5fQ&s=edbc6cf22cfef94ab1e68548e7ab0db4",
        "regular":
          "https://images.unsplash.com/photo-1453365607868-7deed8cc7d26?ixlib=rb-0.3.5&q=80&fm=jpg&crop=entropy&cs=tinysrgb&w=1080&fit=max&ixid=eyJhcHBfaWQiOjIzNzc5fQ&s=d9a2a751adf13e65ca90ed3d81946674",
        "small":
          "https://images.unsplash.com/photo-1453365607868-7deed8cc7d26?ixlib=rb-0.3.5&q=80&fm=jpg&crop=entropy&cs=tinysrgb&w=400&fit=max&ixid=eyJhcHBfaWQiOjIzNzc5fQ&s=896a9cb929e93fb41041fa90ab4c9239",
        "thumb":
          "https://images.unsplash.com/photo-1453365607868-7deed8cc7d26?ixlib=rb-0.3.5&q=80&fm=jpg&crop=entropy&cs=tinysrgb&w=200&fit=max&ixid=eyJhcHBfaWQiOjIzNzc5fQ&s=3b39539565b2460e69032f0cbd6c34dc"
      },
      "links": {
        "self": "https://api.unsplash.com/photos/Aka2x2D4Ph0",
        "html": "https://unsplash.com/photos/Aka2x2D4Ph0",
        "download": "https://unsplash.com/photos/Aka2x2D4Ph0/download",
        "download_location":
          "https://api.unsplash.com/photos/Aka2x2D4Ph0/download"
      },
      "liked_by_user": false,
      "sponsored": false,
      "likes": 225,
      "current_user_collections": [],
      "photo_tags": [
        { "title": "dog" },
        { "title": "animal" },
        { "title": "pet" },
        { "title": "sitting" },
        { "title": "park" }
      ]
    },
    {
      "id": "DziZIYOGAHc",
      "created_at": "2018-01-31T13:31:36-05:00",
      "updated_at": "2018-02-01T14:03:55-05:00",
      "width": 2683,
      "height": 3469,
      "color": "#EA301F",
      "description": null,
      "categories": [],
      "user": {
        "id": "mA08QQzQf8Y",
        "updated_at": "2018-04-01T03:53:06-04:00",
        "username": "charlesdeluvio",
        "name": "Charles Deluvio 🇵🇭🇨🇦",
        "first_name": "Charles",
        "last_name": "Deluvio 🇵🇭🇨🇦",
        "twitter_username": "charlesdeluvio",
        "portfolio_url": "http://charlesdeluvio.com",
        "bio": "Designer at Unsplash.",
        "location": "Montreal",
        "links": {
          "self": "https://api.unsplash.com/users/charlesdeluvio",
          "html": "https://unsplash.com/@charlesdeluvio",
          "photos": "https://api.unsplash.com/users/charlesdeluvio/photos",
          "likes": "https://api.unsplash.com/users/charlesdeluvio/likes",
          "portfolio":
            "https://api.unsplash.com/users/charlesdeluvio/portfolio",
          "following":
            "https://api.unsplash.com/users/charlesdeluvio/following",
          "followers": "https://api.unsplash.com/users/charlesdeluvio/followers"
        },
        "profile_image": {
          "small":
            "https://images.unsplash.com/profile-1515694660956-9133b2f53e3b?ixlib=rb-0.3.5&q=80&fm=jpg&crop=faces&cs=tinysrgb&fit=crop&h=32&w=32&s=326c02411997dbe51fb41869aa881b26",
          "medium":
            "https://images.unsplash.com/profile-1515694660956-9133b2f53e3b?ixlib=rb-0.3.5&q=80&fm=jpg&crop=faces&cs=tinysrgb&fit=crop&h=64&w=64&s=3dd3e1ab06f6f8539ad662cecec59f8a",
          "large":
            "https://images.unsplash.com/profile-1515694660956-9133b2f53e3b?ixlib=rb-0.3.5&q=80&fm=jpg&crop=faces&cs=tinysrgb&fit=crop&h=128&w=128&s=453d1d46e3b467b9218ded9468a43336"
        },
        "total_collections": 91,
        "instagram_username": "deluvio",
        "total_likes": 2649,
        "total_photos": 178
      },
      "urls": {
        "raw":
          "https://images.unsplash.com/photo-1517423440428-a5a00ad493e8?ixlib=rb-0.3.5&ixid=eyJhcHBfaWQiOjIzNzc5fQ&s=9cb01aed51246ca927c0722a91d92597",
        "full":
          "https://images.unsplash.com/photo-1517423440428-a5a00ad493e8?ixlib=rb-0.3.5&q=85&fm=jpg&crop=entropy&cs=srgb&ixid=eyJhcHBfaWQiOjIzNzc5fQ&s=c7009b11402982eff8388ccd2b5dc633",
        "regular":
          "https://images.unsplash.com/photo-1517423440428-a5a00ad493e8?ixlib=rb-0.3.5&q=80&fm=jpg&crop=entropy&cs=tinysrgb&w=1080&fit=max&ixid=eyJhcHBfaWQiOjIzNzc5fQ&s=49aee1607aed102480cd3a47c6aa4b6d",
        "small":
          "https://images.unsplash.com/photo-1517423440428-a5a00ad493e8?ixlib=rb-0.3.5&q=80&fm=jpg&crop=entropy&cs=tinysrgb&w=400&fit=max&ixid=eyJhcHBfaWQiOjIzNzc5fQ&s=07a96df09ff18e1f25088eab2bbeda5f",
        "thumb":
          "https://images.unsplash.com/photo-1517423440428-a5a00ad493e8?ixlib=rb-0.3.5&q=80&fm=jpg&crop=entropy&cs=tinysrgb&w=200&fit=max&ixid=eyJhcHBfaWQiOjIzNzc5fQ&s=a89bcf0cab1d2f6479b2dae8104ca135"
      },
      "links": {
        "self": "https://api.unsplash.com/photos/DziZIYOGAHc",
        "html": "https://unsplash.com/photos/DziZIYOGAHc",
        "download": "https://unsplash.com/photos/DziZIYOGAHc/download",
        "download_location":
          "https://api.unsplash.com/photos/DziZIYOGAHc/download"
      },
      "liked_by_user": false,
      "sponsored": false,
      "likes": 116,
      "current_user_collections": [],
      "photo_tags": [
        { "title": "pet" },
        { "title": "canine" },
        { "title": "red" },
        { "title": "black" },
        { "title": "coat" }
      ]
    },
    {
      "id": "CpkOjOcXdUY",
      "created_at": "2015-07-11T19:40:56-04:00",
      "updated_at": "2017-10-30T05:29:13-04:00",
      "width": 4288,
      "height": 2848,
      "color": "#565F59",
      "description":
        "A cute little brown puppy running while sticking his tongue out",
      "categories": [],
      "user": {
        "id": "oMZBDIluCfY",
        "updated_at": "2018-03-23T00:50:13-04:00",
        "username": "leorivas",
        "name": "Leo Rivas",
        "first_name": "Leo",
        "last_name": "Rivas",
        "twitter_username": "leorivasmicoud",
        "portfolio_url": "http://www.piklip.com",
        "bio":
          "Founder of PIKLIP. Feel free to use any of my photos! Check out my NEW reusable photo sticker product!👉 www.piklip.com",
        "location": "Japan",
        "links": {
          "self": "https://api.unsplash.com/users/leorivas",
          "html": "https://unsplash.com/@leorivas",
          "photos": "https://api.unsplash.com/users/leorivas/photos",
          "likes": "https://api.unsplash.com/users/leorivas/likes",
          "portfolio": "https://api.unsplash.com/users/leorivas/portfolio",
          "following": "https://api.unsplash.com/users/leorivas/following",
          "followers": "https://api.unsplash.com/users/leorivas/followers"
        },
        "profile_image": {
          "small":
            "https://images.unsplash.com/profile-1515121272769-c585d8e73ce4?ixlib=rb-0.3.5&q=80&fm=jpg&crop=faces&cs=tinysrgb&fit=crop&h=32&w=32&s=1fda00827740a46331fa97a2d9008ed3",
          "medium":
            "https://images.unsplash.com/profile-1515121272769-c585d8e73ce4?ixlib=rb-0.3.5&q=80&fm=jpg&crop=faces&cs=tinysrgb&fit=crop&h=64&w=64&s=c0242c429b0d6cb1f41de7686f189027",
          "large":
            "https://images.unsplash.com/profile-1515121272769-c585d8e73ce4?ixlib=rb-0.3.5&q=80&fm=jpg&crop=faces&cs=tinysrgb&fit=crop&h=128&w=128&s=c1c2ad1f96aa173d84af085db637734e"
        },
        "total_collections": 0,
        "instagram_username": "leorivasmicoud",
        "total_likes": 1,
        "total_photos": 34
      },
      "urls": {
        "raw":
          "https://images.unsplash.com/photo-1436658040953-a21ef6596481?ixlib=rb-0.3.5&ixid=eyJhcHBfaWQiOjIzNzc5fQ&s=8c258bbc6fcf1d8d7f7331e915cf044f",
        "full":
          "https://images.unsplash.com/photo-1436658040953-a21ef6596481?ixlib=rb-0.3.5&q=85&fm=jpg&crop=entropy&cs=srgb&ixid=eyJhcHBfaWQiOjIzNzc5fQ&s=2084a4f5125f4080c3e9d78e961e5bbe",
        "regular":
          "https://images.unsplash.com/photo-1436658040953-a21ef6596481?ixlib=rb-0.3.5&q=80&fm=jpg&crop=entropy&cs=tinysrgb&w=1080&fit=max&ixid=eyJhcHBfaWQiOjIzNzc5fQ&s=754aaabffb55a893054cf53d1e26d948",
        "small":
          "https://images.unsplash.com/photo-1436658040953-a21ef6596481?ixlib=rb-0.3.5&q=80&fm=jpg&crop=entropy&cs=tinysrgb&w=400&fit=max&ixid=eyJhcHBfaWQiOjIzNzc5fQ&s=e7680bd1bc45e4b756cc8bfe4e6b991e",
        "thumb":
          "https://images.unsplash.com/photo-1436658040953-a21ef6596481?ixlib=rb-0.3.5&q=80&fm=jpg&crop=entropy&cs=tinysrgb&w=200&fit=max&ixid=eyJhcHBfaWQiOjIzNzc5fQ&s=881ed7dd77c533f71ee772ced2dd86ea"
      },
      "links": {
        "self": "https://api.unsplash.com/photos/CpkOjOcXdUY",
        "html": "https://unsplash.com/photos/CpkOjOcXdUY",
        "download": "https://unsplash.com/photos/CpkOjOcXdUY/download",
        "download_location":
          "https://api.unsplash.com/photos/CpkOjOcXdUY/download"
      },
      "liked_by_user": false,
      "sponsored": false,
      "likes": 134,
      "current_user_collections": [],
      "photo_tags": [
        { "title": "animal" },
        { "title": "puppy" },
        { "title": "run" },
        { "title": "running" },
        { "title": "pet" }
      ]
    },
    {
      "id": "z_eFLP9aS6s",
      "created_at": "2016-02-17T20:07:27-05:00",
      "updated_at": "2017-10-31T12:55:14-04:00",
      "width": 2760,
      "height": 4912,
      "color": "#3E3F40",
      "description": "Dog sways in a child seat on a swing set",
      "categories": [],
      "user": {
        "id": "ertfnwcVyqc",
        "updated_at": "2018-03-30T17:29:23-04:00",
        "username": "marion_michele",
        "name": "Marion Michele",
        "first_name": "Marion",
        "last_name": "Michele",
        "twitter_username": "marion_michele",
        "portfolio_url": "http://www.pastelbeach.com",
        "bio":
          "Photographer + Copywriter. H E R M O S A   B E A C H. \r\nIG: @marionmichele  ",
        "location": "Hermosa Beach, California",
        "links": {
          "self": "https://api.unsplash.com/users/marion_michele",
          "html": "https://unsplash.com/@marion_michele",
          "photos": "https://api.unsplash.com/users/marion_michele/photos",
          "likes": "https://api.unsplash.com/users/marion_michele/likes",
          "portfolio":
            "https://api.unsplash.com/users/marion_michele/portfolio",
          "following":
            "https://api.unsplash.com/users/marion_michele/following",
          "followers": "https://api.unsplash.com/users/marion_michele/followers"
        },
        "profile_image": {
          "small":
            "https://images.unsplash.com/profile-1511330279238-e4985b784af3?ixlib=rb-0.3.5&q=80&fm=jpg&crop=faces&cs=tinysrgb&fit=crop&h=32&w=32&s=a5e7a0ddcfa63e022f4f66dfe7b98ab6",
          "medium":
            "https://images.unsplash.com/profile-1511330279238-e4985b784af3?ixlib=rb-0.3.5&q=80&fm=jpg&crop=faces&cs=tinysrgb&fit=crop&h=64&w=64&s=96ce8d5c75fb78e84cd03fa3dd5b5212",
          "large":
            "https://images.unsplash.com/profile-1511330279238-e4985b784af3?ixlib=rb-0.3.5&q=80&fm=jpg&crop=faces&cs=tinysrgb&fit=crop&h=128&w=128&s=e1be57694a6e165249961e629e00928b"
        },
        "total_collections": 0,
        "instagram_username": "marionmichele",
        "total_likes": 72,
        "total_photos": 81
      },
      "urls": {
        "raw":
          "https://images.unsplash.com/photo-1455757618770-0a58b0b28ebd?ixlib=rb-0.3.5&ixid=eyJhcHBfaWQiOjIzNzc5fQ&s=c01b356c695306f47bde7e55e6333836",
        "full":
          "https://images.unsplash.com/photo-1455757618770-0a58b0b28ebd?ixlib=rb-0.3.5&q=85&fm=jpg&crop=entropy&cs=srgb&ixid=eyJhcHBfaWQiOjIzNzc5fQ&s=1e40bc1574cee8bd37c1fc78501420b2",
        "regular":
          "https://images.unsplash.com/photo-1455757618770-0a58b0b28ebd?ixlib=rb-0.3.5&q=80&fm=jpg&crop=entropy&cs=tinysrgb&w=1080&fit=max&ixid=eyJhcHBfaWQiOjIzNzc5fQ&s=aa8685a966fd2e580b4d9eccd555eac2",
        "small":
          "https://images.unsplash.com/photo-1455757618770-0a58b0b28ebd?ixlib=rb-0.3.5&q=80&fm=jpg&crop=entropy&cs=tinysrgb&w=400&fit=max&ixid=eyJhcHBfaWQiOjIzNzc5fQ&s=adb1cea443102f152b0fd8c7e612d839",
        "thumb":
          "https://images.unsplash.com/photo-1455757618770-0a58b0b28ebd?ixlib=rb-0.3.5&q=80&fm=jpg&crop=entropy&cs=tinysrgb&w=200&fit=max&ixid=eyJhcHBfaWQiOjIzNzc5fQ&s=ddd67e79cd5aa93026a65c7cc73fdf38"
      },
      "links": {
        "self": "https://api.unsplash.com/photos/z_eFLP9aS6s",
        "html": "https://unsplash.com/photos/z_eFLP9aS6s",
        "download": "https://unsplash.com/photos/z_eFLP9aS6s/download",
        "download_location":
          "https://api.unsplash.com/photos/z_eFLP9aS6s/download"
      },
      "liked_by_user": false,
      "sponsored": false,
      "likes": 895,
      "current_user_collections": [],
      "photo_tags": [
        { "title": "wallpaper" },
        { "title": "funny wallpapers" },
        { "title": "funny backgrounds" },
        { "title": "dog" },
        { "title": "swing" }
      ]
    },
    {
      "id": "aYHgchNOsGY",
      "created_at": "2017-11-06T21:13:58-05:00",
      "updated_at": "2017-11-07T14:08:45-05:00",
      "width": 5184,
      "height": 3888,
      "color": "#E6E3E0",
      "description": null,
      "categories": [],
      "user": {
        "id": "mi0hbqohcbM",
        "updated_at": "2018-03-31T11:55:02-04:00",
        "username": "avirichards",
        "name": "Avi Richards",
        "first_name": "Avi",
        "last_name": "Richards",
        "twitter_username": "AviRichards",
        "portfolio_url": "http://RoundBox.io",
        "bio":
          "Just a guy who likes to shoot...(pictures to be clear :P) - - - - - - - - - - - - - - - - - - - - Personal Instagram: avirichards",
        "location": "Los Angeles",
        "links": {
          "self": "https://api.unsplash.com/users/avirichards",
          "html": "https://unsplash.com/@avirichards",
          "photos": "https://api.unsplash.com/users/avirichards/photos",
          "likes": "https://api.unsplash.com/users/avirichards/likes",
          "portfolio": "https://api.unsplash.com/users/avirichards/portfolio",
          "following": "https://api.unsplash.com/users/avirichards/following",
          "followers": "https://api.unsplash.com/users/avirichards/followers"
        },
        "profile_image": {
          "small":
            "https://images.unsplash.com/profile-1512425200878-f8aa571c3c2d?ixlib=rb-0.3.5&q=80&fm=jpg&crop=faces&cs=tinysrgb&fit=crop&h=32&w=32&s=93902b8c6a1370f85a85ff494a331d87",
          "medium":
            "https://images.unsplash.com/profile-1512425200878-f8aa571c3c2d?ixlib=rb-0.3.5&q=80&fm=jpg&crop=faces&cs=tinysrgb&fit=crop&h=64&w=64&s=7541af6e0b2eb9cae7030978065dc74a",
          "large":
            "https://images.unsplash.com/profile-1512425200878-f8aa571c3c2d?ixlib=rb-0.3.5&q=80&fm=jpg&crop=faces&cs=tinysrgb&fit=crop&h=128&w=128&s=7bc255935cfe121321d17e73fe1f0f10"
        },
        "total_collections": 0,
        "instagram_username": "round.box",
        "total_likes": 96,
        "total_photos": 38
      },
      "urls": {
        "raw":
          "https://images.unsplash.com/photo-1510020553968-30f966e1ec9e?ixlib=rb-0.3.5&ixid=eyJhcHBfaWQiOjIzNzc5fQ&s=ac2cc088b6fa040f1686c78dcb16c516",
        "full":
          "https://images.unsplash.com/photo-1510020553968-30f966e1ec9e?ixlib=rb-0.3.5&q=85&fm=jpg&crop=entropy&cs=srgb&ixid=eyJhcHBfaWQiOjIzNzc5fQ&s=d658f97f4557df813d22ab7018ba2b9e",
        "regular":
          "https://images.unsplash.com/photo-1510020553968-30f966e1ec9e?ixlib=rb-0.3.5&q=80&fm=jpg&crop=entropy&cs=tinysrgb&w=1080&fit=max&ixid=eyJhcHBfaWQiOjIzNzc5fQ&s=385951748d9128c87932e8a14a85dceb",
        "small":
          "https://images.unsplash.com/photo-1510020553968-30f966e1ec9e?ixlib=rb-0.3.5&q=80&fm=jpg&crop=entropy&cs=tinysrgb&w=400&fit=max&ixid=eyJhcHBfaWQiOjIzNzc5fQ&s=5594e86d94d21dfde2e8605b8e3c3868",
        "thumb":
          "https://images.unsplash.com/photo-1510020553968-30f966e1ec9e?ixlib=rb-0.3.5&q=80&fm=jpg&crop=entropy&cs=tinysrgb&w=200&fit=max&ixid=eyJhcHBfaWQiOjIzNzc5fQ&s=a6bd1fa5f42d3291bac946ba3b6d7005"
      },
      "links": {
        "self": "https://api.unsplash.com/photos/aYHgchNOsGY",
        "html": "https://unsplash.com/photos/aYHgchNOsGY",
        "download": "https://unsplash.com/photos/aYHgchNOsGY/download",
        "download_location":
          "https://api.unsplash.com/photos/aYHgchNOsGY/download"
      },
      "liked_by_user": false,
      "sponsored": false,
      "likes": 211,
      "current_user_collections": [],
      "photo_tags": [
        { "title": "road" },
        { "title": "vehcile" },
        { "title": "car" },
        { "title": "window" },
        { "title": "portrait" }
      ]
    }
  ]
}
